{
  "datacenter": "tenant1",
  "description": "First DEV cluster",
  "hosts": [
    {
      "_unused_profiles": [
        "p00"
      ],
      "comment": "masters",
      "hosts": [
        "host1.os.amadeus.net",
        "host2.os.amadeus.net"
      ],
      "profiles": [
        "p1",
        "p2"
      ]
    },
    {
      "_unused_profiles": [
        "p01"
      ],
      "comment": "workers",
      "hosts": [
        "host3.os.amadeus.net",
        "host4.os.amadeus.net"
      ],
      "profiles": [
        "p3",
        "p4"
      ]
    },
    {
      "comment": "gateways",
      "hosts": [
        "host5.os.amadeus.net",
        "host6.os.amadeus.net"
      ],
      "profiles": [
        "p5",
        "p6"
      ],
      "ssh-key-file": "./ssh_keys"
    }
  ],
  "name": "tenant1_cluster1",
  "phase": "DEV"
}
