{ 
  "contentType": "metadata",
  "schemaVersion": "1.0",
  "content": {
    "groupId": "com.amadeus.lbox-test.blueprints.datacenters.dc_bel_air_openstack.dc_bel_air_openstack-hosts",
    "artifactId": "host5.os.amadeus.net",
    "version": "1.0-SNAPSHOT",
    "type": "json"
  }
}

